1~40108~0001~0005~
1~0~826~1000.00~1~GEM000521202002101070640~1~
1~0~826~1000.00~2~GEM000521202002102570639~1~
1~0~826~1000.00~3~GEM000521202002101670638~1~
1~0~826~1000.00~4~GEM00052120200210-270637~1~
1~0~826~1000.00~5~GEM000521202002109770636~1~
